SystemC-AMS Filter design/ConsoleApplication1/bandpass.vcd
$date
     Jun 05, 2023       12:12:53
$end

$version
 SystemC 2.3.1-Accellera --- Jun  3 2023 09:05:15
$end

$timescale
     10 ns
$end

$scope module SystemC $end
$var real    1  aaaaa  vin       $end
$var real    1  aaaab  vout       $end
$upscope $end
$enddefinitions  $end

$comment
All initial values are dumped below at time 0 sec = 0 timescale units.
$end

$dumpvars
r0 aaaaa
r0 aaaab
$end

#1000
r0.0009999998333333417 aaaaa

#2000
r0.001999998666666933 aaaaa

#3000
r0.002999995500002025 aaaaa

#4000
r0.003999989333341867 aaaaa

#5000
r0.004999979166692708 aaaaa

#6000
r0.0059999640000648 aaaaa

#7000
r0.006999942833473391 aaaaa

#8000
r0.007999914666939733 aaaaa

#9000
r0.008999878500492074 aaaaa

#10000
r0.009999833334166664 aaaaa

#11000
r0.01099977816800875 aaaaa

#12000
r0.01199971200207359 aaaaa

#13000
r0.01299963383642743 aaaaa

#14000
r0.01399954267114851 aaaaa

#15000
r0.01499943750632809 aaaaa

#16000
r0.01599931734207142 aaaaa

#17000
r0.01699918117849873 aaaaa

#18000
r0.01799902801574628 aaaaa

#19000
r0.01899885685396731 aaaaa

#20000
r0.01999866669333308 aaaaa

#21000
r0.02099845653403382 aaaaa

#22000
r0.02199822537627977 aaaaa

#23000
r0.02299797222030218 aaaaa

#24000
r0.02399769606635429 aaaaa

#25000
r0.02499739591471233 aaaaa

#26000
r0.02599707076567654 aaaaa

#27000
r0.02699671961957215 aaaaa

#28000
r0.02799634147675039 aaaaa

#29000
r0.02899593533758949 aaaaa

#30000
r0.02999550020249566 aaaaa

#31000
r0.03099503507190413 aaaaa

#32000
r0.03199453894628012 aaaaa

#33000
r0.03299401082611982 aaaaa

#34000
r0.03399344971195145 aaaaa

#35000
r0.0349928546043362 aaaaa

#36000
r0.03599222450386925 aaaaa

#37000
r0.03699155841118081 aaaaa

#38000
r0.03799085532693703 aaaaa

#39000
r0.0389901142518411 aaaaa

#40000
r0.03998933418663416 aaaaa

#41000
r0.04098851413209637 aaaaa

#42000
r0.04198765308904786 aaaaa

#43000
r0.04298675005834976 aaaaa

#44000
r0.04398580404090519 aaaaa

#45000
r0.04498481403766023 aaaaa

#46000
r0.045983779049605 aaaaa

#47000
r0.04698269807777454 aaaaa

#48000
r0.04798157012324993 aaaaa

#49000
r0.04898039418715918 aaaaa

#50000
r0.04997916927067833 aaaaa

#51000
r0.05097789437503237 aaaaa

#52000
r0.05197656850149629 aaaaa

#53000
r0.05297519065139604 aaaaa

#54000
r0.05397375982610955 aaaaa

#55000
r0.05497227502706773 aaaaa

#56000
r0.05597073525575547 aaaaa

#57000
r0.05696913951371262 aaaaa

#58000
r0.057967486802535 aaaaa

#59000
r0.0589657761238754 aaaaa

#60000
r0.0599640064794446 aaaaa

#61000
r0.06096217687101231 aaaaa

#62000
r0.06196028630040824 aaaaa

#63000
r0.06295833376952302 aaaaa

#64000
r0.06395631828030929 aaaaa

#65000
r0.0649542388347826 aaaaa

#66000
r0.06595209443502249 aaaaa

#67000
r0.06694988408317346 aaaaa

#68000
r0.0679476067814459 aaaaa

#69000
r0.06894526153211723 aaaaa

#70000
r0.06994284733753277 aaaaa

#71000
r0.07094036320010678 aaaaa

#72000
r0.07193780812232353 aaaaa

#73000
r0.07293518110673816 aaaaa

#74000
r0.07393248115597774 aaaaa

#75000
r0.07492970727274234 aaaaa

#76000
r0.0759268584598059 aaaaa

#77000
r0.07692393372001734 aaaaa

#78000
r0.07792093205630146 aaaaa

#79000
r0.07891785247166003 aaaaa

#80000
r0.0799146939691727 aaaaa

#81000
r0.08091145555199805 aaaaa

#82000
r0.08190813622337459 aaaaa

#83000
r0.08290473498662174 aaaaa

#84000
r0.08390125084514082 aaaaa

#85000
r0.08489768280241602 aaaaa

#86000
r0.08589402986201551 aaaaa

#87000
r0.0868902910275923 aaaaa

#88000
r0.0878864653028853 aaaaa

#89000
r0.08888255169172031 aaaaa

#90000
r0.08987854919801104 aaaaa

#91000
r0.09087445682576008 aaaaa

#92000
r0.09187027357905984 aaaaa

#93000
r0.0928659984620937 aaaaa

#94000
r0.09386163047913683 aaaaa

#95000
r0.0948571686345573 aaaaa

#96000
r0.09585261193281704 aaaaa

#97000
r0.09684795937847283 aaaaa

#98000
r0.09784320997617732 aaaaa

#99000
r0.09883836273067999 aaaaa

#100000
r0.09983341664682815 aaaaa
r0.0308869883533375 aaaab

#101000
r0.100828370729568 aaaaa

#102000
r0.1018232239839455 aaaaa

#103000
r0.1028179754151075 aaaaa

#104000
r0.1038126240283027 aaaaa

#105000
r0.1048071688288825 aaaaa

#106000
r0.1058016088223022 aaaaa

#107000
r0.1067959430141219 aaaaa

#108000
r0.1077901704100075 aaaaa

#109000
r0.1087842900157316 aaaaa

#110000
r0.1097783008371748 aaaaa

#111000
r0.1107722018803263 aaaaa

#112000
r0.1117659921512852 aaaaa

#113000
r0.1127596706562612 aaaaa

#114000
r0.113753236401576 aaaaa

#115000
r0.1147466883936638 aaaaa

#116000
r0.1157400256390728 aaaaa

#117000
r0.1167332471444658 aaaaa

#118000
r0.1177263519166214 aaaaa

#119000
r0.1187193389624349 aaaaa

#120000
r0.1197122072889194 aaaaa

#121000
r0.1207049559032065 aaaaa

#122000
r0.1216975838125477 aaaaa

#123000
r0.1226900900243153 aaaaa

#124000
r0.1236824735460031 aaaaa

#125000
r0.1246747333852277 aaaaa

#126000
r0.1256668685497292 aaaaa

#127000
r0.1266588780473727 aaaaa

#128000
r0.1276507608861487 aaaaa

#129000
r0.1286425160741745 aaaaa

#130000
r0.1296341426196949 aaaaa

#131000
r0.1306256395310834 aaaaa

#132000
r0.1316170058168434 aaaaa

#133000
r0.1326082404856084 aaaaa

#134000
r0.1335993425461441 aaaaa

#135000
r0.1345903110073483 aaaaa

#136000
r0.1355811448782528 aaaaa

#137000
r0.1365718431680236 aaaaa

#138000
r0.1375624048859627 aaaaa

#139000
r0.1385528290415083 aaaaa

#140000
r0.1395431146442365 aaaaa

#141000
r0.1405332607038616 aaaaa

#142000
r0.1415232662302378 aaaaa

#143000
r0.1425131302333595 aaaaa

#144000
r0.1435028517233628 aaaaa

#145000
r0.1444924297105264 aaaaa

#146000
r0.1454818632052723 aaaaa

#147000
r0.1464711512181671 aaaaa

#148000
r0.147460292759923 aaaaa

#149000
r0.1484492868413983 aaaaa

#150000
r0.1494381324735992 aaaaa

#151000
r0.1504268286676801 aaaaa

#152000
r0.1514153744349448 aaaaa

#153000
r0.1524037687868477 aaaaa

#154000
r0.1533920107349945 aaaaa

#155000
r0.1543800992911434 aaaaa

#156000
r0.1553680334672059 aaaaa

#157000
r0.1563558122752478 aaaaa

#158000
r0.1573434347274905 aaaaa

#159000
r0.1583308998363115 aaaaa

#160000
r0.159318206614246 aaaaa

#161000
r0.160305354073987 aaaaa

#162000
r0.1612923412283874 aaaaa

#163000
r0.16227916709046 aaaaa

#164000
r0.163265830673379 aaaaa

#165000
r0.164252330990481 aaaaa

#166000
r0.1652386670552656 aaaaa

#167000
r0.166224837881397 aaaaa

#168000
r0.1672108424827043 aaaaa

#169000
r0.1681966798731831 aaaaa

#170000
r0.169182349066996 aaaaa

#171000
r0.170167849078474 aaaaa

#172000
r0.171153178922117 aaaaa

#173000
r0.1721383376125954 aaaaa

#174000
r0.1731233241647505 aaaaa

#175000
r0.1741081375935959 aaaaa

#176000
r0.1750927769143182 aaaaa

#177000
r0.1760772411422782 aaaaa

#178000
r0.1770615292930117 aaaaa

#179000
r0.1780456403822307 aaaaa

#180000
r0.1790295734258242 aaaaa

#181000
r0.1800133274398591 aaaaa

#182000
r0.1809969014405816 aaaaa

#183000
r0.1819802944444177 aaaaa

#184000
r0.1829635054679746 aaaaa

#185000
r0.1839465335280412 aaaaa

#186000
r0.1849293776415896 aaaaa

#187000
r0.1859120368257758 aaaaa

#188000
r0.1868945100979407 aaaaa

#189000
r0.1878767964756111 aaaaa

#190000
r0.1888588949765006 aaaaa

#191000
r0.1898408046185109 aaaaa

#192000
r0.1908225244197324 aaaaa

#193000
r0.1918040533984453 aaaaa

#194000
r0.1927853905731209 aaaaa

#195000
r0.1937665349624219 aaaaa

#196000
r0.1947474855852042 aaaaa

#197000
r0.195728241460517 aaaaa

#198000
r0.1967088016076048 aaaaa

#199000
r0.1976891650459073 aaaaa

#200000
r0.1986693307950612 aaaaa
r0.06177786407684603 aaaab

#201000
r0.1996492978749009 aaaaa

#202000
r0.2006290653054594 aaaaa

#203000
r0.2016086321069693 aaaaa

#204000
r0.2025879972998638 aaaaa

#205000
r0.203567159904778 aaaaa

#206000
r0.2045461189425492 aaaaa

#207000
r0.2055248734342185 aaaaa

#208000
r0.2065034224010315 aaaaa

#209000
r0.2074817648644393 aaaaa

#210000
r0.2084598998460996 aaaaa

#211000
r0.2094378263678773 aaaaa

#212000
r0.2104155434518462 aaaaa

#213000
r0.2113930501202891 aaaaa

#214000
r0.2123703453956995 aaaaa

#215000
r0.2133474283007823 aaaaa

#216000
r0.2143242978584545 aaaaa

#217000
r0.2153009530918467 aaaaa

#218000
r0.2162773930243038 aaaaa

#219000
r0.2172536166793858 aaaaa

#220000
r0.2182296230808693 aaaaa

#221000
r0.2192054112527479 aaaaa

#222000
r0.2201809802192335 aaaaa

#223000
r0.2211563290047573 aaaaa

#224000
r0.2221314566339704 aaaaa

#225000
r0.2231063621317455 aaaaa

#226000
r0.224081044523177 aaaaa

#227000
r0.2250555028335826 aaaaa

#228000
r0.2260297360885042 aaaaa

#229000
r0.2270037433137085 aaaaa

#230000
r0.2279775235351884 aaaaa

#231000
r0.2289510757791638 aaaaa

#232000
r0.2299243990720825 aaaaa

#233000
r0.2308974924406212 aaaaa

#234000
r0.2318703549116868 aaaaa

#235000
r0.2328429855124168 aaaaa

#236000
r0.2338153832701806 aaaaa

#237000
r0.2347875472125807 aaaaa

#238000
r0.2357594763674532 aaaaa

#239000
r0.2367311697628689 aaaaa

#240000
r0.2377026264271346 aaaaa

#241000
r0.2386738453887937 aaaaa

#242000
r0.2396448256766272 aaaaa

#243000
r0.2406155663196551 aaaaa

#244000
r0.2415860663471367 aaaaa

#245000
r0.2425563247885721 aaaaa

#246000
r0.2435263406737029 aaaaa

#247000
r0.2444961130325133 aaaaa

#248000
r0.245465640895231 aaaaa

#249000
r0.2464349232923284 aaaaa

#250000
r0.2474039592545229 aaaaa

#251000
r0.2483727478127788 aaaaa

#252000
r0.2493412879983077 aaaaa

#253000
r0.2503095788425693 aaaaa

#254000
r0.2512776193772729 aaaaa

#255000
r0.2522454086343781 aaaaa

#256000
r0.2532129456460956 aaaaa

#257000
r0.2541802294448887 aaaaa

#258000
r0.2551472590634734 aaaaa

#259000
r0.2561140335348203 aaaaa

#260000
r0.2570805518921551 aaaaa

#261000
r0.2580468131689594 aaaaa

#262000
r0.259012816398972 aaaaa

#263000
r0.2599785606161898 aaaaa

#264000
r0.2609440448548687 aaaaa

#265000
r0.2619092681495244 aaaaa

#266000
r0.2628742295349339 aaaaa

#267000
r0.2638389280461357 aaaaa

#268000
r0.2648033627184314 aaaaa

#269000
r0.2657675325873865 aaaaa

#270000
r0.2667314366888311 aaaaa

#271000
r0.2676950740588613 aaaaa

#272000
r0.2686584437338398 aaaaa

#273000
r0.2696215447503968 aaaaa

#274000
r0.2705843761454317 aaaaa

#275000
r0.2715469369561129 aaaaa

#276000
r0.2725092262198798 aaaaa

#277000
r0.2734712429744431 aaaaa

#278000
r0.2744329862577863 aaaaa

#279000
r0.2753944551081661 aaaaa

#280000
r0.2763556485641138 aaaaa

#281000
r0.2773165656644359 aaaaa

#282000
r0.2782772054482154 aaaaa

#283000
r0.2792375669548127 aaaaa

#284000
r0.2801976492238663 aaaaa

#285000
r0.281157451295294 aaaaa

#286000
r0.2821169722092939 aaaaa

#287000
r0.2830762110063451 aaaaa

#288000
r0.2840351667272088 aaaaa

#289000
r0.2849938384129295 aaaaa

#290000
r0.2859522251048355 aaaaa

#291000
r0.2869103258445403 aaaaa

#292000
r0.2878681396739431 aaaaa

#293000
r0.2888256656352302 aaaaa

#294000
r0.2897829027708758 aaaaa

#295000
r0.2907398501236427 aaaaa

#296000
r0.2916965067365838 aaaaa

#297000
r0.2926528716530424 aaaaa

#298000
r0.2936089439166538 aaaaa

#299000
r0.2945647225713457 aaaaa

#300000
r0.2955202066613395 aaaaa
r0.08240050674630602 aaaab

#301000
r0.2964753952311514 aaaaa

#302000
r0.2974302873255927 aaaaa

#303000
r0.2983848819897715 aaaaa

#304000
r0.2993391782690932 aaaaa

#305000
r0.3002931752092615 aaaaa

#306000
r0.3012468718562797 aaaaa

#307000
r0.302200267256451 aaaaa

#308000
r0.3031533604563804 aaaaa

#309000
r0.3041061505029745 aaaaa

#310000
r0.3050586364434435 aaaaa

#311000
r0.3060108173253014 aaaaa

#312000
r0.3069626921963676 aaaaa

#313000
r0.3079142601047671 aaaaa

#314000
r0.3088655200989321 aaaaa

#315000
r0.3098164712276029 aaaaa

#316000
r0.3107671125398281 aaaaa

#317000
r0.3117174430849668 aaaaa

#318000
r0.3126674619126883 aaaaa

#319000
r0.313617168072974 aaaaa

#320000
r0.3145665606161178 aaaaa

#321000
r0.3155156385927271 aaaaa

#322000
r0.3164644010537241 aaaaa

#323000
r0.3174128470503465 aaaaa

#324000
r0.3183609756341483 aaaaa

#325000
r0.319308785857001 aaaaa

#326000
r0.3202562767710944 aaaaa

#327000
r0.3212034474289377 aaaaa

#328000
r0.3221502968833604 aaaaa

#329000
r0.323096824187513 aaaaa

#330000
r0.3240430283948684 aaaaa

#331000
r0.3249889085592224 aaaaa

#332000
r0.3259344637346948 aaaaa

#333000
r0.3268796929757308 aaaaa

#334000
r0.327824595337101 aaaaa

#335000
r0.3287691698739031 aaaaa

#336000
r0.3297134156415628 aaaaa

#337000
r0.3306573316958343 aaaaa

#338000
r0.3316009170928018 aaaaa

#339000
r0.3325441708888797 aaaaa

#340000
r0.3334870921408144 aaaaa

#341000
r0.3344296799056848 aaaaa

#342000
r0.3353719332409032 aaaaa

#343000
r0.3363138512042163 aaaaa

#344000
r0.3372554328537061 aaaaa

#345000
r0.3381966772477912 aaaaa

#346000
r0.3391375834452273 aaaaa

#347000
r0.3400781505051082 aaaaa

#348000
r0.341018377486867 aaaaa

#349000
r0.3419582634502766 aaaaa

#350000
r0.3428978074554513 aaaaa

#351000
r0.3438370085628472 aaaaa

#352000
r0.3447758658332631 aaaaa

#353000
r0.3457143783278419 aaaaa

#354000
r0.3466525451080712 aaaaa

#355000
r0.3475903652357843 aaaaa

#356000
r0.3485278377731611 aaaaa

#357000
r0.3494649617827292 aaaaa

#358000
r0.3504017363273646 aaaaa

#359000
r0.3513381604702929 aaaaa

#360000
r0.3522742332750899 aaaaa

#361000
r0.3532099538056832 aaaaa

#362000
r0.3541453211263519 aaaaa

#363000
r0.3550803343017291 aaaaa

#364000
r0.3560149923968016 aaaaa

#365000
r0.3569492944769114 aaaaa

#366000
r0.3578832396077564 aaaaa

#367000
r0.3588168268553916 aaaaa

#368000
r0.3597500552862299 aaaaa

#369000
r0.3606829239670429 aaaaa

#370000
r0.361615431964962 aaaaa

#371000
r0.3625475783474792 aaaaa

#372000
r0.3634793621824483 aaaaa

#373000
r0.3644107825380855 aaaaa

#374000
r0.3653418384829706 aaaaa

#375000
r0.3662725290860476 aaaaa

#376000
r0.367202853416626 aaaaa

#377000
r0.3681328105443816 aaaaa

#378000
r0.3690623995393574 aaaaa

#379000
r0.3699916194719644 aaaaa

#380000
r0.3709204694129827 aaaaa

#381000
r0.3718489484335625 aaaaa

#382000
r0.3727770556052249 aaaaa

#383000
r0.3737047899998627 aaaaa

#384000
r0.3746321506897417 aaaaa

#385000
r0.3755591367475012 aaaaa

#386000
r0.3764857472461553 aaaaa

#387000
r0.3774119812590935 aaaaa

#388000
r0.3783378378600818 aaaaa

#389000
r0.3792633161232639 aaaaa

#390000
r0.3801884151231614 aaaaa

#391000
r0.3811131339346756 aaaaa

#392000
r0.3820374716330874 aaaaa

#393000
r0.3829614272940596 aaaaa

#394000
r0.3838849999936363 aaaaa

#395000
r0.384808188808245 aaaaa

#396000
r0.385730992814697 aaaaa

#397000
r0.3866534110901884 aaaaa

#398000
r0.3875754427123008 aaaaa

#399000
r0.3884970867590029 aaaaa

#400000
r0.3894183423086505 aaaaa
r0.08923875039836585 aaaab

#401000
r0.3903392084399883 aaaaa

#402000
r0.3912596842321502 aaaaa

#403000
r0.3921797687646605 aaaaa

#404000
r0.3930994611174347 aaaaa

#405000
r0.3940187603707804 aaaaa

#406000
r0.3949376656053987 aaaaa

#407000
r0.3958561759023843 aaaaa

#408000
r0.396774290343227 aaaaa

#409000
r0.3976920080098124 aaaaa

#410000
r0.3986093279844229 aaaaa

#411000
r0.3995262493497386 aaaaa

#412000
r0.4004427711888383 aaaaa

#413000
r0.4013588925852002 aaaaa

#414000
r0.402274612622703 aaaaa

#415000
r0.4031899303856266 aaaaa

#416000
r0.4041048449586535 aaaaa

#417000
r0.4050193554268691 aaaaa

#418000
r0.4059334608757629 aaaaa

#419000
r0.4068471603912298 aaaaa

#420000
r0.4077604530595701 aaaaa

#421000
r0.4086733379674914 aaaaa

#422000
r0.4095858142021088 aaaaa

#423000
r0.4104978808509461 aaaaa

#424000
r0.4114095370019368 aaaaa

#425000
r0.4123207817434247 aaaaa

#426000
r0.4132316141641653 aaaaa

#427000
r0.4141420333533262 aaaaa

#428000
r0.4150520384004882 aaaaa

#429000
r0.4159616283956463 aaaaa

#430000
r0.4168708024292108 aaaaa

#431000
r0.4177795595920075 aaaaa

#432000
r0.4186878989752795 aaaaa

#433000
r0.4195958196706874 aaaaa

#434000
r0.4205033207703106 aaaaa

#435000
r0.421410401366648 aaaaa

#436000
r0.4223170605526193 aaaaa

#437000
r0.4232232974215651 aaaaa

#438000
r0.4241291110672488 aaaaa

#439000
r0.4250345005838568 aaaaa

#440000
r0.4259394650659996 aaaaa

#441000
r0.4268440036087128 aaaaa

#442000
r0.427748115307458 aaaaa

#443000
r0.4286517992581236 aaaaa

#444000
r0.4295550545570256 aaaaa

#445000
r0.4304578803009089 aaaaa

#446000
r0.4313602755869477 aaaaa

#447000
r0.4322622395127468 aaaaa

#448000
r0.4331637711763425 aaaaa

#449000
r0.4340648696762031 aaaaa

#450000
r0.4349655341112302 aaaaa

#451000
r0.4358657635807595 aaaaa

#452000
r0.4367655571845614 aaaaa

#453000
r0.4376649140228426 aaaaa

#454000
r0.4385638331962463 aaaaa

#455000
r0.4394623138058533 aaaaa

#456000
r0.440360354953183 aaaaa

#457000
r0.4412579557401946 aaaaa

#458000
r0.4421551152692872 aaaaa

#459000
r0.4430518326433013 aaaaa

#460000
r0.4439481069655198 aaaaa

#461000
r0.4448439373396683 aaaaa

#462000
r0.4457393228699165 aaaaa

#463000
r0.4466342626608789 aaaaa

#464000
r0.4475287558176159 aaaaa

#465000
r0.4484228014456345 aaaaa

#466000
r0.4493163986508889 aaaaa

#467000
r0.4502095465397821 aaaaa

#468000
r0.4511022442191663 aaaaa

#469000
r0.4519944907963439 aaaaa

#470000
r0.4528862853790683 aaaaa

#471000
r0.4537776270755451 aaaaa

#472000
r0.4546685149944326 aaaaa

#473000
r0.4555589482448431 aaaaa

#474000
r0.4564489259363432 aaaaa

#475000
r0.4573384471789554 aaaaa

#476000
r0.4582275110831587 aaaaa

#477000
r0.4591161167598889 aaaaa

#478000
r0.4600042633205407 aaaaa

#479000
r0.4608919498769675 aaaaa

#480000
r0.4617791755414829 aaaaa

#481000
r0.4626659394268611 aaaaa

#482000
r0.4635522406463385 aaaaa

#483000
r0.4644380783136139 aaaaa

#484000
r0.4653234515428497 aaaaa

#485000
r0.4662083594486727 aaaaa

#486000
r0.4670928011461751 aaaaa

#487000
r0.4679767757509153 aaaaa

#488000
r0.4688602823789187 aaaaa

#489000
r0.4697433201466789 aaaaa

#490000
r0.470625888171158 aaaaa

#491000
r0.4715079855697882 aaaaa

#492000
r0.4723896114604721 aaaaa

#493000
r0.4732707649615839 aaaaa

#494000
r0.4741514451919702 aaaaa

#495000
r0.4750316512709508 aaaaa

#496000
r0.4759113823183197 aaaaa

#497000
r0.476790637454346 aaaaa

#498000
r0.4776694157997745 aaaaa

#499000
r0.4785477164758271 aaaaa

#500000
r0.479425538604203 aaaaa
r0.09053182676628385 aaaab

#501000
r0.4803028813070803 aaaaa

#502000
r0.4811797437071163 aaaaa

#503000
r0.4820561249274487 aaaaa

#504000
r0.4829320240916963 aaaaa

#505000
r0.4838074403239602 aaaaa

#506000
r0.484682372748824 aaaaa

#507000
r0.4855568204913554 aaaaa

#508000
r0.4864307826771068 aaaaa

#509000
r0.4873042584321161 aaaaa

#510000
r0.4881772468829075 aaaaa

#511000
r0.4890497471564927 aaaaa

#512000
r0.4899217583803716 aaaaa

#513000
r0.4907932796825329 aaaaa

#514000
r0.4916643101914553 aaaaa

#515000
r0.4925348490361087 aaaaa

#516000
r0.4934048953459539 aaaaa

#517000
r0.494274448250945 aaaaa

#518000
r0.495143506881529 aaaaa

#519000
r0.4960120703686474 aaaaa

#520000
r0.4968801378437367 aaaaa

#521000
r0.4977477084387296 aaaaa

#522000
r0.4986147812860556 aaaaa

#523000
r0.4994813555186418 aaaaa

#524000
r0.5003474302699141 aaaaa

#525000
r0.5012130046737979 aaaaa

#526000
r0.5020780778647187 aaaaa

#527000
r0.5029426489776035 aaaaa

#528000
r0.5038067171478813 aaaaa

#529000
r0.5046702815114839 aaaaa

#530000
r0.5055333412048469 aaaaa

#531000
r0.506395895364911 aaaaa

#532000
r0.5072579431291219 aaaaa

#533000
r0.5081194836354319 aaaaa

#534000
r0.5089805160223007 aaaaa

#535000
r0.5098410394286959 aaaaa

#536000
r0.510701052994094 aaaaa

#537000
r0.5115605558584818 aaaaa

#538000
r0.5124195471623563 aaaaa

#539000
r0.5132780260467263 aaaaa

#540000
r0.5141359916531132 aaaaa

#541000
r0.5149934431235511 aaaaa

#542000
r0.5158503796005889 aaaaa

#543000
r0.5167068002272901 aaaaa

#544000
r0.517562704147234 aaaaa

#545000
r0.518418090504517 aaaaa

#546000
r0.5192729584437527 aaaaa

#547000
r0.5201273071100732 aaaaa

#548000
r0.52098113564913 aaaaa

#549000
r0.5218344432070944 aaaaa

#550000
r0.5226872289306592 aaaaa

#551000
r0.5235394919670386 aaaaa

#552000
r0.5243912314639697 aaaaa

#553000
r0.525242446569713 aaaaa

#554000
r0.5260931364330534 aaaaa

#555000
r0.5269433002033014 aaaaa

#556000
r0.5277929370302931 aaaaa

#557000
r0.5286420460643916 aaaaa

#558000
r0.5294906264564881 aaaaa

#559000
r0.5303386773580023 aaaaa

#560000
r0.5311861979208834 aaaaa

#561000
r0.5320331872976108 aaaaa

#562000
r0.5328796446411953 aaaaa

#563000
r0.5337255691051794 aaaaa

#564000
r0.534570959843639 aaaaa

#565000
r0.5354158160111833 aaaaa

#566000
r0.5362601367629563 aaaaa

#567000
r0.537103921254637 aaaaa

#568000
r0.5379471686424414 aaaaa

#569000
r0.5387898780831218 aaaaa

#570000
r0.5396320487339692 aaaaa

#571000
r0.5404736797528128 aaaaa

#572000
r0.5413147702980217 aaaaa

#573000
r0.5421553195285053 aaaaa

#574000
r0.5429953266037146 aaaaa

#575000
r0.5438347906836426 aaaaa

#576000
r0.5446737109288251 aaaaa

#577000
r0.5455120865003422 aaaaa

#578000
r0.5463499165598182 aaaaa

#579000
r0.5471872002694232 aaaaa

#580000
r0.5480239367918736 aaaaa

#581000
r0.5488601252904327 aaaaa

#582000
r0.5496957649289124 aaaaa

#583000
r0.5505308548716729 aaaaa

#584000
r0.5513653942836244 aaaaa

#585000
r0.5521993823302276 aaaaa

#586000
r0.5530328181774945 aaaaa

#587000
r0.5538657009919893 aaaaa

#588000
r0.5546980299408292 aaaaa

#589000
r0.5555298041916854 aaaaa

#590000
r0.5563610229127838 aaaaa

#591000
r0.5571916852729055 aaaaa

#592000
r0.5580217904413884 aaaaa

#593000
r0.5588513375881274 aaaaa

#594000
r0.5596803258835754 aaaaa

#595000
r0.5605087544987442 aaaaa

#596000
r0.5613366226052051 aaaaa

#597000
r0.5621639293750903 aaaaa

#598000
r0.5629906739810929 aaaaa

#599000
r0.5638168555964684 aaaaa

#600000
r0.5646424733950354 aaaaa
r0.08865604552606962 aaaab

#601000
r0.5654675265511759 aaaaa

#602000
r0.5662920142398371 aaaaa

#603000
r0.5671159356365312 aaaaa

#604000
r0.5679392899173369 aaaaa

#605000
r0.5687620762589001 aaaaa

#606000
r0.5695842938384343 aaaaa

#607000
r0.5704059418337222 aaaaa

#608000
r0.5712270194231158 aaaaa

#609000
r0.5720475257855376 aaaaa

#610000
r0.5728674601004813 aaaaa

#611000
r0.5736868215480125 aaaaa

#612000
r0.5745056093087701 aaaaa

#613000
r0.5753238225639662 aaaaa

#614000
r0.5761414604953877 aaaaa

#615000
r0.5769585222853968 aaaaa

#616000
r0.5777750071169316 aaaaa

#617000
r0.5785909141735075 aaaaa

#618000
r0.5794062426392174 aaaaa

#619000
r0.5802209916987329 aaaaa

#620000
r0.5810351605373051 aaaaa

#621000
r0.5818487483407652 aaaaa

#622000
r0.5826617542955254 aaaaa

#623000
r0.5834741775885799 aaaaa

#624000
r0.5842860174075054 aaaaa

#625000
r0.5850972729404622 aaaaa

#626000
r0.5859079433761948 aaaaa

#627000
r0.5867180279040328 aaaaa

#628000
r0.5875275257138919 aaaaa

#629000
r0.5883364359962742 aaaaa

#630000
r0.5891447579422695 aaaaa

#631000
r0.589952490743556 aaaaa

#632000
r0.5907596335924009 aaaaa

#633000
r0.5915661856816614 aaaaa

#634000
r0.5923721462047856 aaaaa

#635000
r0.5931775143558129 aaaaa

#636000
r0.5939822893293754 aaaaa

#637000
r0.5947864703206979 aaaaa

#638000
r0.5955900565255997 aaaaa

#639000
r0.5963930471404946 aaaaa

#640000
r0.5971954413623921 aaaaa

#641000
r0.597997238388898 aaaaa

#642000
r0.5987984374182153 aaaaa

#643000
r0.599599037649145 aaaaa

#644000
r0.6003990382810872 aaaaa

#645000
r0.6011984385140411 aaaaa

#646000
r0.6019972375486065 aaaaa

#647000
r0.6027954345859846 aaaaa

#648000
r0.6035930288279783 aaaaa

#649000
r0.6043900194769934 aaaaa

#650000
r0.6051864057360395 aaaaa

#651000
r0.6059821868087304 aaaaa

#652000
r0.6067773618992848 aaaaa

#653000
r0.607571930212528 aaaaa

#654000
r0.6083658909538915 aaaaa

#655000
r0.6091592433294148 aaaaa

#656000
r0.6099519865457456 aaaaa

#657000
r0.6107441198101405 aaaaa

#658000
r0.6115356423304666 aaaaa

#659000
r0.6123265533152014 aaaaa

#660000
r0.6131168519734338 aaaaa

#661000
r0.6139065375148653 aaaaa

#662000
r0.6146956091498106 aaaaa

#663000
r0.6154840660891978 aaaaa

#664000
r0.6162719075445703 aaaaa

#665000
r0.6170591327280867 aaaaa

#666000
r0.6178457408525216 aaaaa

#667000
r0.6186317311312672 aaaaa

#668000
r0.6194171027783333 aaaaa

#669000
r0.6202018550083481 aaaaa

#670000
r0.6209859870365597 aaaaa

#671000
r0.621769498078836 aaaaa

#672000
r0.622552387351666 aaaaa

#673000
r0.6233346540721605 aaaaa

#674000
r0.624116297458053 aaaaa

#675000
r0.6248973167276999 aaaaa

#676000
r0.6256777111000822 aaaaa

#677000
r0.6264574797948055 aaaaa

#678000
r0.6272366220321013 aaaaa

#679000
r0.6280151370328273 aaaaa

#680000
r0.6287930240184686 aaaaa

#681000
r0.6295702822111382 aaaaa

#682000
r0.6303469108335782 aaaaa

#683000
r0.6311229091091598 aaaaa

#684000
r0.6318982762618849 aaaaa

#685000
r0.6326730115163863 aaaaa

#686000
r0.6334471140979291 aaaaa

#687000
r0.6342205832324105 aaaaa

#688000
r0.6349934181463615 aaaaa

#689000
r0.6357656180669472 aaaaa

#690000
r0.6365371822219679 aaaaa

#691000
r0.6373081098398594 aaaaa

#692000
r0.6380784001496942 aaaaa

#693000
r0.638848052381182 aaaaa

#694000
r0.6396170657646707 aaaaa

#695000
r0.6403854395311469 aaaaa

#696000
r0.6411531729122369 aaaaa

#697000
r0.6419202651402075 aaaaa

#698000
r0.6426867154479664 aaaaa

#699000
r0.6434525230690634 aaaaa

#700000
r0.644217687237691 aaaaa
r0.08489600546017589 aaaab

#701000
r0.644982207188685 aaaaa

#702000
r0.6457460821575256 aaaaa

#703000
r0.6465093113803378 aaaaa

#704000
r0.6472718940938926 aaaaa

#705000
r0.6480338295356072 aaaaa

#706000
r0.6487951169435462 aaaaa

#707000
r0.6495557555564224 aaaaa

#708000
r0.6503157446135971 aaaaa

#709000
r0.6510750833550815 aaaaa

#710000
r0.6518337710215366 aaaaa

#711000
r0.6525918068542752 aaaaa

#712000
r0.6533491900952613 aaaaa

#713000
r0.6541059199871117 aaaaa

#714000
r0.6548619957730966 aaaaa

#715000
r0.6556174166971402 aaaaa

#716000
r0.6563721820038219 aaaaa

#717000
r0.6571262909383763 aaaaa

#718000
r0.6578797427466945 aaaaa

#719000
r0.6586325366753246 aaaaa

#720000
r0.6593846719714731 aaaaa

#721000
r0.6601361478830046 aaaaa

#722000
r0.6608869636584431 aaaaa

#723000
r0.6616371185469732 aaaaa

#724000
r0.6623866117984397 aaaaa

#725000
r0.6631354426633497 aaaaa

#726000
r0.6638836103928722 aaaaa

#727000
r0.6646311142388397 aaaaa

#728000
r0.6653779534537484 aaaaa

#729000
r0.666124127290759 aaaaa

#730000
r0.6668696350036979 aaaaa

#731000
r0.6676144758470572 aaaaa

#732000
r0.6683586490759965 aaaaa

#733000
r0.6691021539463423 aaaaa

#734000
r0.6698449897145899 aaaaa

#735000
r0.6705871556379037 aaaaa

#736000
r0.6713286509741178 aaaaa

