SystemC-AMS Filter design/ConsoleApplication1/HW6.vcd
$date
     Jun 12, 2023       10:17:19
$end

$version
 SystemC 2.3.1-Accellera --- Jun  3 2023 09:05:15
$end

$timescale
     10 us
$end

$scope module SystemC $end
$var real    1  aaaaa  vin       $end
$var real    1  aaaab  vout       $end
$upscope $end
$enddefinitions  $end

$comment
All initial values are dumped below at time 0 sec = 0 timescale units.
$end

$dumpvars
r0 aaaaa
r0 aaaab
$end

#10
r-0.3131715270236552 aaaaa

#20
r-0.5948358565326741 aaaaa

#30
r-0.816655630571785 aaaaa

#40
r-0.9563142627650678 aaaaa

#50
r-0.9997611395367699 aaaaa

#60
r-0.9426252079343771 aaaaa

#70
r-0.7906547334508869 aaaaa

#80
r-0.5591389852016956 aaaaa

#90
r-0.2713700308826163 aaaaa

#100
r0.04370060454339753 aaaaa
r-0.0848031346508176 aaaab

#110
r0.3543746602677265 aaaaa

#120
r0.6293962014695776 aaaaa

#130
r0.84109618012987 aaaaa

#140
r0.9681761305008207 aaaaa

#150
r0.9978509404282675 aaaaa

#160
r0.927135121076494 aaaaa

#170
r0.7631431675239667 aaaaa

#180
r0.5223737918997751 aaaaa

#190
r0.2290500401026415 aaaaa

#200
r-0.08731771228687095 aaaaa
r0.07157813753207545 aaaab

#210
r-0.3949007056221516 aaaaa

#220
r-0.6627539870996663 aaaaa

#230
r-0.8639296846549852 aaaaa

#240
r-0.978188147198942 aaaaa

#250
r-0.9940341919436738 aaaaa

#260
r-0.9098735984108918 aaaaa

#270
r-0.7341734979154619 aaaaa

#280
r-0.4846105222452826 aaaaa

#290
r-0.1862924136063903 aaaaa

#300
r0.1307679859641152 aaaaa
r0.04365472746191811 aaaab

#310
r0.4346722317759446 aaaaa

#320
r0.6948454781867396 aaaaa

#330
r0.8851125171863866 aaaaa

#340
r0.9863311833447759 aaaaa

#350
r0.988318186574429 aaaaa

#360
r0.8908736207605923 aaaaa

#370
r0.7038010756836116 aaaaa

#380
r0.4459213288366496 aaaaa

#390
r0.1431788464876054 aaaaa

#400
r-0.1739684070712495 aaaaa
r-0.008719012077094667 aaaab

#410
r-0.4736132490443713 aaaaa

#420
r-0.7256093589472161 aaaaa

#430
r-0.904604204628835 aaaaa

#440
r-0.9925896804016167 aaaaa

#450
r-0.9807138456375649 aaaaa

#460
r-0.8701714905371755 aaaaa

#470
r-0.6720839320636537 aaaaa

#480
r-0.40638013339361 aaaaa

#490
r-0.09979171391993366 aaaaa

#500
r0.2168364344865775 aaaaa
r0.02703519784429548 aaaab

#510
r0.5116493545590579 aaaaa

#520
r0.7549868502034714 aaaaa

#530
r0.9223675050827371 aaaaa

#540
r0.9969516805377127 aaaaa

#550
r0.971235698408829 aaaaa

#560
r0.8478067623793777 aaaaa

#570
r0.6390826675901271 aaaaa

#580
r0.3660624855182613 aaaaa

#590
r0.05621391376634825 aaaaa

#600
r-0.2592901621782345 aaaaa
r-0.01927298040386891 aaaab

#610
r-0.5487078744262394 aaaaa

#620
r-0.7829218216905969 aaaaa

#630
r-0.9383684790005861 aaaaa

#640
r-0.9994088494735627 aaaaa

#650
r-0.9599018543622454 aaaaa

#660
r-0.8238221675778037 aaaaa

#670
r-0.6048603363101276 aaaaa

#680
r-0.3250454183458021 aaaaa

#690
r-0.01252870818989188 aaaaa

#700
r0.3012484756983967 aaaaa
r0.02293658277969748 aaaab

#710
r0.5847180025815337 aaaaa

#720
r0.8093608993019978 aaaaa

#730
r0.9525765540337432 aaaaa

#740
r0.9999564924058533 aaaaa

#750
r0.9467339685691482 aaaaa

#760
r0.7982635324301519 aaaaa

#770
r0.5694823253087464 aaaaa

#780
r0.28340730136075 aaaaa

#790
r-0.03118043543163204 aaaaa

#800
r-0.3426312071650463 aaaaa
r-0.02134761328095518 aaaab

#810
r-0.6196109360759373 aaaaa

#820
r-0.8342535670689237 aaaaa

#830
r-0.9649645834456646 aaaaa

#840
r-0.99859356297761 aaaaa

#850
r-0.9317572003228005 aaaaa

#860
r-0.7711796906829472 aaaaa

#870
r-0.5330162297768777 aaaaa

#880
r-0.2412276906598558 aaaaa

#890
r0.0748300039830629 aaaaa

#900
r0.3833592884351749 aaaaa
r0.02206200482748097 aaaab

#910
r0.6533200065345572 aaaaa

#920
r0.8575522636790808 aaaaa

#930
r0.9755088979799621 aaaaa

#940
r0.9953226652774255 aaaaa

#950
r0.9150001650676534 aaaaa

#960
r0.7426223902270752 aaaaa

#970
r0.4955317238600956 aaaaa

#980
r0.1985871769478103 aaaaa

#990
r-0.1183365981766748 aaaaa

#1000
r-0.4233549021767654 aaaaa
r-0.02167615017929775 aaaab

#1010
r-0.6857808075369075 aaaaa

#1020
r-0.8792124733499145 aaaaa

#1030
r-0.9841893510841977 aaaaa

#1040
r-0.9901500488639431 aaaaa

#1050
r-0.8964948797250886 aaaaa

#1060
r-0.7126461942253901 aaaaa

#1070
r-0.4571004275353659 aaaaa

#1080
r-0.1555672315561724 aaaaa

#1090
r0.1616170918994831 aaaaa

#1100
r0.4625416305509041 aaaaa
r0.02172604334456832 aaaab

#1110
r0.7169313176753901 aaaaa

#1120
r0.8991928108829341 aaaaa

#1130
r0.9909893574030044 aaaaa

#1140
r0.9830855968251033 aaaaa

#1150
r0.8762767015201136 aaaaa

#1160
r0.6813083768613087 aaaaa

#1170
r0.4177957697699438 aaaaa

#1180
r0.112250050779722 aaaaa

#1190
r-0.2045887910386091 aaaaa

#1200
r-0.5008446012199445 aaaaa
r-0.021519181110383 aaaab

#1210
r-0.7467120190568375 aaaaa

#1220
r-0.9174551007365688 aaaaa

#1230
r-0.995895924466987 aaaaa

#1240
r-0.974142806894968 aaaaa

#1250
r-0.8543842604258841 aaaaa

#1260
r-0.6486688139075772 aaaaa

#1270
r-0.3776928482239147 aaaaa

#1280
r-0.06871839882765843 aaaaa

#1290
r0.2471695914812398 aaaaa

#1300
r0.5381906304027496 aaaaa
r0.02136828973133977 aaaab

#1310
r0.7750660110207022 aaaaa

#1320
r0.9339644499664763 aaaaa

#1330
r0.9988996775168549 aaaaa

#1340
r0.9633387656642001 aaaaa

#1350
r0.8308593853551349 aaaaa

#1360
r0.6147898683242972 aaaaa

#1370
r0.3368682857644377 aaaaa

#1380
r0.02505544968970995 aaaaa

#1390
r-0.2892781359873023 aaaaa

#1400
r-0.5745083627036855 aaaaa
r-0.0211327785748219 aaaab

#1410
r-0.8019391188566158 aaaaa

#1420
r-0.9486893148939378 aaaaa

#1430
r-0.9999948774153571 aaaaa

#1440
r-0.9506941159334757 aaaaa

#1450
r-0.8057470242395376 aaaaa

#1460
r-0.5797362711047939 aaaaa

#1470
r-0.2954000840658441 aaaaa

#1480
r0.01865537178070634 aaaaa

#1490
r0.330833969635121 aaaaa

#1500
r0.6097284074481996 aaaaa
r0.02087664297666477 aaaab

#1510
r0.8272799973135971 aaaaa

#1520
r0.9616015613749613 aaaaa

#1530
r0.9991794316127962 aaaaa

#1540
r0.9362330172722039 aaaaa

#1550
r0.779095158149688 aaaaa

#1560
r0.5435749975969884 aaaaa

#1570
r0.2533674745753096 aaaaa

#1580
r-0.06233054926263885 aaaaa

#1590
r-0.3717576935430552 aaaaa

#1600
r-0.6437834712644933 aaaaa
r-0.0205717094668914 aaaab

#1610
r-0.8510402287031376 aaaaa

#1620
r-0.9726765185549385 aaaaa

#1630
r-0.9964548981451707 aaaaa

#1640
r-0.9199830998579123 aaaaa

#1650
r-0.7509547096198114 aaaaa

#1660
r-0.5063751395365815 aaaaa

#1670
r-0.2108507671288559 aaaaa

#1680
r0.1058866345385179 aaaaa

#1690
r0.411971116573408 aaaaa

#1700
r0.676608486657973 aaaaa
r0.02023148939585263 aaaab

#1710
r0.8731744154087232 aaaaa

#1720
r0.9818930260061478 aaaaa

#1730
r0.9918264826573042 aaaaa

#1740
r0.901975411684497 aaaaa

#1750
r0.7213794453523416 aaaaa

#1760
r0.4682077730365501 aaaaa

#1770
r0.1679311965069209 aaaaa

#1780
r-0.1492404069349511 aaaaa

#1790
r-0.4513974047287526 aaaaa

#1800
r-0.7081407363328152 aaaaa
r-0.01985080115100719 aaaab

#1810
r-0.8936402666250401 aaaaa

#1820
r-0.9892334741580423 aaaaa

#1830
r-0.985303028456652 aaaaa

#1840
r-0.8822443592402031 aaaaa

#1850
r-0.6904258734882768 aaaaa

#1860
r-0.4291458227851813 aaaaa

#1870
r-0.1246907672226799 aaaaa

#1880
r0.1923090323287594 aaaaa

#1890
r0.4899612279552316 aaaaa

#1900
r0.7383199730231119 aaaaa
r0.01943300253437093 aaaab

#1910
r0.9123986791611342 aaaaa

#1920
r0.9946838379430719 aaaaa

#1930
r0.9768969996167868 aaaaa

#1940
r0.8608276417686779 aaaaa

#1950
r0.6581531356395895 aaaaa

#1960
r0.3892639227121164 aaaaa

#1970
r0.0812120968396725 aaaaa

#1980
r-0.2350102214144497 aaaaa

#1990
r-0.5275889040723377 aaaaa

#2000
r-0.7670885346046405 aaaaa
r-0.01897770532481739 aaaab

#2010
r-0.9294138121531365 aaaaa

#2020
r-0.9982337035937563 aaaaa

#2030
r-0.9666244571628485 aaaaa

#2040
r-0.8377661792387054 aaaaa

#2050
r-0.6246228938899814 aaaaa

#2060
r-0.3486382733886241 aaaaa

#2070
r-0.0375782581181011 aaaaa

#2080
r0.2772623869307273 aaaaa

#2090
r0.5642085395541759 aaaaa

#2100
r0.7943914542673173 aaaaa
r0.01848631461906279 aaaab

#2110
r0.9446531555438072 aaaaa

#2120
r0.9998762885398063 aaaaa

#2130
r0.9545050283844583 aaaaa

#2140
r0.8131040341602429 aaaaa

#2150
r0.5898992129798836 aaaaa

#2160
r0.3073464964345607 aaaaa

#2170
r-0.006127379708594057 aaaaa

#2180
r-0.3189847995456452 aaaaa

#2190
r-0.599750166893224 aaaaa

#2200
r-0.8201765655378351 aaaaa
r-0.01795952789587094 aaaab

#2210
r-0.9580875921980552 aaaaa

#2220
r-0.9996084543672792 aaaaa

#2230
r-0.9405618693347296 aaaaa

#2240
r-0.7868883273961439 aaaaa

#2250
r-0.5540484379008102 aaaaa

#2260
r-0.2654674862101958 aaaaa

#2270
r0.04982131022361852 aaaaa

#2280
r0.3600977421025449 aaaaa

#2290
r0.6341458782841344 aaaaa

#2300
r0.8443946019518219 aaaaa
r0.01739846054934383 aaaab

#2310
r0.9696914535357511 aaaaa

#2320
r0.9974307128150069 aaaaa

#2330
r0.9248216205870287 aaaaa

#2340
r0.7591691481304236 aaaaa

#2350
r0.5171390671329349 aaaaa

#2360
r0.2230812590762699 aaaaa

#2370
r-0.09342004937881711 aaaaa

#2380
r-0.4005226619320791 aaaaa

#2390
r-0.6673299553721551 aaaaa

#2400
r-0.8669992911850813 aaaaa
r-0.01680413547148792 aaaab

#2410
r-0.9794425685755419 aaaaa

#2420
r-0.993347224796839 aaaaa

#2430
r-0.9073143563340166 aaaaa

#2440
r-0.7299994581650846 aaaaa

#2450
r-0.4792416217680946 aaaaa

#2460
r-0.1802688005102955 aaaaa

#2470
r0.1368402950039287 aaaaa

#2480
r0.4401823209393013 aaaaa

#2490
r0.6992389948182653 aaaaa

#2500
r0.8879474434640625 aaaaa
r0.01617771036640992 aaaab

#2510
r0.987322306295957 aaaaa

#2520
r0.9873657924515696 aaaaa

#2530
r0.8880735269262281 aaaaa

#2540
r0.6994349907283585 aaaaa

#2550
r0.440428510768278 aaaaa

#2560
r0.1371119103712105 aaaaa

#2570
r-0.1799990859683353 aaaaa

#2580
r-0.4790009431790548 aaaaa

#2590
r-0.7298120294411126 aaaaa

#2600
r-0.9071990340866385 aaaaa
r-0.0155203721240141 aaaab

#2610
r-0.9933156112328725 aaaaa

#2620
r-0.9794978442357389 aaaaa

#2630
r-0.8671358949599753 aaaaa

#2640
r-0.6675341439877081 aaaaa

#2650
r-0.4007738926170448 aaaaa

#2660
r-0.09369304660802813 aaaaa

#2670
r0.2228139606912012 aaaaa

#2680
r0.5169043596376991 aaaaa

#2690
r0.758990644704293 aaaaa

#2700
r0.9247172798955229 aaaaa
r0.01483338119852992 aaaab

#2710
r0.9974110322453161 aaaaa

#2720
r0.969758413087789 aaaaa

#2730
r0.8445414650366923 aaaaa

#2740
r0.6343578694710481 aaaaa

#2750
r0.3603535336282123 aaaaa

#2760
r0.05009516771110448 aaaaa

#2770
r-0.2652031146971452 aaaaa

#2780
r-0.5538201499445424 aaaaa

#2790
r-0.7867190903264054 aaaaa

#2800
r-0.940468709558211 aaaaa
r-0.01411804815986431 aaaab

#2810
r-0.9996007443946526 aaaaa

#2820
r-0.9581661077052982 aaaaa

#2830
r-0.8203334073279225 aaaaa

#2840
r-0.5999695556093737 aaaaa

#2850
r-0.319244663182532 aaaaa

#2860
r-0.006401574207043409 aaaaa

#2870
r0.3070855569164105 aaaaa

#2880
r0.5896777807422204 aaaaa

#2890
r0.8129443868006327 aaaaa

#2900
r0.9544232275191654 aaaaa
r0.01337574068005669 aaaab

#2910
r0.9998805638953454 aaaaa

#2920
r0.9447430769901706 aaaaa

#2930
r0.7945579750919946 aaaaa

#2940
r0.564434906623307 aaaaa

#2950
r0.2775258261689493 aaaaa

#2960
r-0.03730425049991176 aaaaa

#2970
r-0.3483812644308969 aaaaa

#2980
r-0.624408740451643 aaaaa

#2990
r-0.8376164266203275 aaaaa

#3000
r-0.9665541715020535 aaaaa
r-0.0126078766393246 aaaab

#3010
r-0.9982499561087297 aaaaa

#3020
r-0.9295149677297151 aaaaa

#3030
r-0.7672644162999801 aaaaa

#3040
r-0.527821816984967 aaaaa

#3050
r-0.2352767329123805 aaaaa

#3060
r0.08093879963590275 aaaaa

#3070
r0.3890113353703877 aaaaa

#3080
r0.6579466701740184 aaaaa

#3090
r0.8606880700171944 aaaaa

#3100
r0.9768383634521731 aaaaa
r0.01181592334789009 aaaab

#3110
r0.9947120365645227 aaaaa

#3120
r0.9125108755944705 aaaaa

#3130
r0.7385048795397873 aaaaa

#3140
r0.4902002416950244 aaaaa

#3150
r0.1925781068747429 aaaaa

#3160
r-0.1244187026101322 aaaaa

#3170
r-0.4288981396668421 aaaaa

#3180
r-0.6902274904798478 aaaaa

#3190
r-0.882115235029147 aaaaa

#3200
r-0.9852561538217295 aaaaa
r-0.01100139387149808 aaaab

#3210
r-0.9892735650081195 aaaaa

#3220
r-0.8937632895464032 aaaaa

#3230
r-0.7083343143781754 aaaaa

#3240
r-0.4516420626227949 aaaaa

#3250
r-0.1495115304202289 aaaaa

#3260
r0.1676608843073403 aaaaa

#3270
r0.46796546737871 aaaaa

#3280
r0.7211895238426387 aaaaa

#3290
r0.901856981725751 aaaaa

#3300
r0.9917914591133513 aaaaa
r0.01016584453332394 aaaab

#3310
r0.9819449324850488 aaaaa

#3320
r0.8733080297636927 aaaaa

#3330
r0.6768103663710633 aaaaa

#3340
r0.4122209511647519 aaaaa

#3350
r0.106159288939515 aaaaa

#3360
r-0.2105827238157303 aaaaa

#3370
r-0.5061386743018754 aaaaa

#3380
r-0.7507736124834095 aaaaa

#3390
r-0.919875590430327 aaaaa

#3400
r-0.9964317926101139 aaaaa
r-0.009310871763173681 aaaab

#3410
r-0.9727401414872643 aaaaa

#3420
r-0.8511841792007131 aaaaa

#3430
r-0.6439932669227317 aaaaa

#3440
r-0.3720122274838675 aaaaa

#3450
r-0.06260421363072746 aaaaa

#3460
r0.2531022122870664 aaaaa

#3470
r0.5433448245890148 aaaaa

#3480
r0.7789232314008248 aaaaa

#3490
r0.9361366337892573 aaaaa

#3500
r0.9991682882333529 aaaaa
r0.008438109127186649 aaaab

#3510
r0.9616767791992071 aaaaa

#3520
r0.8274340089139703 aaaaa

#3530
r0.6099457182043602 aaaaa

#3540
r0.3310927165987307 aaaaa

#3550
r0.01892952323755952 aaaaa

#3560
r-0.2951381096273301 aaaaa

#3570
r-0.579512830104874 aaaaa

#3580
r-0.8055845963709992 aaaaa

#3590
r-0.9506090425507985 aaaaa

#3600
r-0.9999957174826863 aaaaa
r-0.00754922417059981 aaaab

#3610
r-0.9487759838947548 aaaaa

#3620
r-0.8021028972966772 aaaaa

#3630
r-0.5747327733517795 aaaaa

#3640
r-0.2895406015974031 aaaaa

#3650
r0.02478133495307803 aaaaa

#3660
r0.3366100997185519 aaaaa

#3670
r0.6145735862512037 aaaaa

#3680
r0.8307067667106202 aaaaa

#3690
r0.9632651649277176 aaaaa

#3700
r0.9989124994258776 aaaaa
r0.006645915247905631 aaaab

#3710
r0.9340624045492626 aaaaa

#3720
r0.7752392433762761 aaaaa

#3730
r0.5384217121713404 aaaaa

#3740
r0.2474352742564732 aaaaa

#3750
r-0.0684448445500737 aaaaa

#3760
r-0.3774389438752427 aaaaa

#3770
r-0.6484601040018403 aaaaa

#3780
r-0.8542417426070436 aaaaa

#3790
r-0.9740808194303314 aaaaa

#3800
r-0.9959207037194522 aaaaa
r-0.005729908270546055 aaaab

#3810
r-0.9175641537438631 aaaaa

#3820
r-0.7468943743405733 aaaaa

#3830
r-0.5010819125913826 aaaaa

#3840
r-0.2048571833507224 aaaaa

#3850
r0.1119775796291663 aaaaa

#3860
r0.4175466322422229 aaaaa

#3870
r0.6811076378956551 aaaaa

#3880
r0.8761445568294001 aaaaa

#3890
r0.9830353410690023 aaaaa

#3900
r0.9910260466542973 aaaaa
r0.004802953412599843 aaaab

#3910
r0.8993127539520094 aaaaa

#3920
r0.7171224474691639 aaaaa

#3930
r0.4627847181049152 aaaaa

#3940
r0.1618876809432322 aaaaa

#3950
r-0.1552963641311451 aaaaa

#3960
r-0.4568565328445808 aaaaa

#3970
r-0.7124538097428263 aaaaa

#3980
r-0.8963733606454808 aaaaa

#3990
r-0.9901116208378137 aaaaa

#4000
r-0.9842378802337989 aaaaa
r-0.003866821765309922 aaaab

#4010
r-0.8793430773108877 aaaaa

#4020
r-0.6859803466575298 aaaaa

#4030
r-0.4236033014567803 aaaaa

#4040
r-0.118608866949618 aaaaa

#4050
r0.1983184307826437 aaaaa

#4060
r0.4952935380049759 aaaaa

#4070
r0.7424387278080687 aaaaa

#4080
r0.9148895037802476 aaaaa

#4090
r0.9952961384039869 aaaaa

#4100
r0.9755691743053858 aaaaa
r0.002923301953810716 aaaab

#4110
r0.8576932789927768 aaaaa

#4120
r0.653527573731512 aaaaa

#4130
r0.3836125248357458 aaaaa

#4140
r0.07510343227337497 aaaaa

#4150
r-0.2409615792358853 aaaaa

#4160
r-0.5327842078485349 aaaaa

#4170
r-0.7710051012431072 aaaaa

#4180
r-0.931657608263193 aaaaa

#4190
r-0.9985789879405785 aaaaa

#4200
r-0.9650364917796187 aaaaa
r-0.001974196719380023 aaaab

#4210
r-0.8344047243036598 aaaaa

#4220
r-0.6198261347598205 aaaaa

#4230
r-0.3428887968386546 aaaaa

#4240
r-0.03145450081204926 aaaaa

#4250
r0.2831443331252285 aaaaa

#4260
r0.5692569106211512 aaaaa

#4270
r0.7980983495497497 aaaaa

#4280
r0.9466456360234542 aaaaa

#4290
r0.9999538970531034 aaaaa

#4300
r0.9526599569841746 aaaaa
r0.001021319475155969 aaaab

#4310
r0.8095219096483736 aaaaa

#4320
r0.5849404215817988 aaaaa

#4330
r0.3015099264799188 aaaaa

#4340
r-0.01225452936389281 aaaaa

#4350
r-0.324786095740432 aaaaa

#4360
r-0.6046419595530901 aaaaa

#4370
r-0.8236667068644162 aaaaa

#4380
r-0.9598249501035282 aaaaa

#4390
r-0.9994182387639193 aaaaa

#4400
r-0.9384632172131899 aaaaa
r-6.649084126886416e-05 aaaab

#4410
r-0.7830923775133103 aaaaa

#4420
r-0.5489370887768028 aaaaa

#4430
r-0.2595549745252996 aaaaa

#4440
r0.05594014535604607 aaaaa

#4450
r0.3658073040192019 aaaaa

#4460
r0.6388717460063967 aaaaa

#4470
r0.8476613208648704 aaaaa

#4480
r0.9711703693746325 aaaaa

#4490
r0.9969730365314767 aaaaa

#4500
r0.9224733975454276 aaaaa
r-0.0008884648337074973 aaaab

#4510
r0.7551666256291037 aaaaa

#4520
r0.5118849263102627 aaaaa

#4530
r0.2171041024340212 aaaaa

#4540
r-0.09951887900244411 aaaaa

#4550
r-0.4061295805647931 aaaaa

#4560
r-0.671880868651712 aaaaa

#4570
r-0.8700363461101762 aaaaa

#4580
r-0.9806602166491669 aaaaa

#4590
r-0.9926229622948414 aaaaa

#4600
r-0.9047210490175969 aaaaa
r0.001841722958473981 aaaab

#4610
r-0.7257980104868635 aaaaa

#4620
r-0.4738547280997581 aaaaa

#4630
r-0.1742384191978389 aaaaa

#4640
r0.142907466356461 aaaaa

#4650
r0.4456758833982127 aaaaa

#4660
r0.7036062584276812 aaaaa

#4670
r0.8907490316355423 aaaaa

#4680
r0.9882763600983507 aaaaa

#4690
r0.9863763275472294 aaaaa

#4700
r0.8852400902518472 aaaaa
r-0.002791462185160815 aaaab

#4710
r0.6950426453923025 aaaaa

#4720
r0.4349191567522308 aaaaa

#4730
r0.1310398263696988 aaaaa

#4740
r-0.1860230067755282 aaaaa

#4750
r-0.4843706531588999 aaaaa

#4760
r-0.7339872990442021 aaaaa

#4770
r-0.9097598026346867 aaaaa

#4780
r-0.9940042478959011 aaaaa

#4790
r-0.9782450674556061 aaaaa

#4800
r-0.8640677426489669 aaaaa
r0.00373586788930295 aaaab

#4810
r-0.6629592932525413 aaaaa

#4820
r-0.395152604730776 aaaaa

#4830
r-0.08759086157808571 aaaaa

#4840
r0.2287831213157017 aaaaa

#4850
r0.5221399574726328 aaaaa

#4860
r0.7629659427992729 aaaaa

#4870
r0.9270323360736582 aaaaa

#4880
r0.9978329360215598 aaaaa

#4890
r0.9682447180566947 aaaaa

#4900
r0.8412444592711089 aaaaa
r-0.00467313563695745 aaaab

#4910
r0.629609254300437 aaaaa

#4920
r0.3546310522162747 aaaaa

#4930
r0.04397454082605103 aaaaa

#4940
r-0.2711061101294441 aaaaa

#4950
r-0.5589116322108255 aaaaa

#4960
r-0.7904868214881519 aaaaa

#4970
r-0.9425336300916404 aaaaa

#4980
r-0.9997551091713455 aaaaa

#4990
r-0.9563943865729614 aaaaa

#5000
r-0.816813847549926 aaaaa
r0.005601474632358731 aaaab

#5010
r-0.5950562489709571 aaaaa

#5020
r-0.3134319219354434 aaaaa

#5030
r-0.0002741998762302471 aaaaa

#5040
r0.3129111085658862 aaaaa

#5050
r0.594615419371316 aaaaa

#5060
r0.8164973521929221 aaaaa

#5070
r0.956234067056138 aaaaa

#5080
r0.9997670947345796 aaaaa

#5090
r0.942716714905297 aaaaa

#5100
r0.7908225859677923 aaaaa
r-0.006519111139509533 aaaab

#5110
r0.5593662961533803 aaaaa

#5120
r0.2716339312326771 aaaaa

#5130
r-0.04342666497508901 aaaaa

#5140
r-0.3541182416753163 aaaaa

#5150
r-0.6291831013172039 aaaaa

#5160
r-0.8409478377503324 aaaaa

#5170
r-0.9681074701520692 aaaaa

#5180
r-0.9978688698109801 aaaaa

#5190
r-0.9272378363721441 aaaaa

#5200
r-0.7633203348713039 aaaaa
r0.007424291871181037 aaaab

#5210
r-0.5226075870519441 aaaaa

#5220
r-0.2293169416683226 aaaaa

#5230
r0.08704455643062387 aaaaa

#5240
r0.3946487768226912 aaaaa

#5250
r0.6625486311172525 aaaaa

#5260
r0.8637915617059545 aaaaa

#5270
r0.978131153396641 aaaaa

#5280
r0.9940640612544156 aaaaa

#5290
r0.9099873257777286 aaaaa

#5300
r0.7343596415874662 aaaaa
r-0.008315287338840465 aaaab

#5310
r0.4848503548959454 aaaaa

#5320
r0.1865618064307504 aaaaa

#5330
r-0.1304961357266655 aaaaa

#5340
r-0.4344252741185773 aaaaa

#5350
r-0.6946482587388207 aaaaa

#5360
r-0.8849848775732336 aaaaa

#5370
r-0.9862859649844465 aaaaa

#5380
r-0.9883599387432377 aaaaa

#5390
r-0.8909981429047981 aaaaa

#5400
r-0.7039958400238545 aaaaa
r0.009190395157106779 aaaab

#5410
r-0.4461667407482356 aaaaa

#5420
r-0.1434502158537661 aaaaa

#5430
r0.1736983818647455 aaaaa

#5440
r0.4733717343801007 aaaaa

#5450
r0.7254206528522128 aaaaa

#5460
r0.9044872922268872 aaaaa

#5470
r0.9925563238799674 aaaaa

#5480
r0.9807674008904298 aaaaa

#5490
r0.8703065695398322 aaaaa

#5500
r0.6722869449445795 aaaaa
r-0.01004794329642423 aaaab

#5510
r0.4066306556685036 aaaaa

#5520
r0.100064541334526 aaaaa

#5530
r-0.216568750236162 aaaaa

#5540
r-0.5114137443392028 aaaaa

#5550
r-0.7548070180137199 aaaaa

#5560
r-0.9222615432713169 aaaaa

#5570
r-0.9969302495875646 aaaaa

#5580
r-0.9713009544201124 aaaaa

#5590
r-0.8479521401510475 aaaaa

#5600
r-0.6392935411240607 aaaaa
r0.01088629327773365 aaaab

#5610
r-0.3663176394947028 aaaaa

#5620
r-0.05648767795017518 aaaaa

#5630
r0.2590253303362898 aaaaa

#5640
r0.5484786188207597 aaaaa

#5650
r0.7827512070034573 aaaaa

#5660
r0.9382736702362099 aaaaa

#5670
r0.9993993850420785 aaaaa

#5680
r0.9599786864501912 aaaaa

#5690
r0.8239775663516491 aaaaa

#5700
r0.605078667590394 aaaaa
r-0.01170384330304197 aaaab

#5710
r0.325304716512446 aaaaa

#5720
r0.01280288607391296 aaaaa

#5730
r-0.3009870022673352 aaaaa

#5740
r-0.5844955396189101 aaaaa

#5750
r-0.8091998281033588 aaaaa

#5760
r-0.9524930794632972 aaaaa

#5770
r-0.9999590125763008 aaaaa

#5780
r-0.9468222299341058 aaaaa

#5790
r-0.7984286552926527 aaaaa

#5800
r-0.5697076971794865 aaaaa
r0.01249903131590611 aaaab

#5810
r-0.2836702482881312 aaaaa

#5820
r0.03090636770689576 aaaaa

#5830
r0.342373591730514 aaaaa

#5840
r0.6193956908062503 aaaaa

#5850
r0.8341023471103547 aaaaa

#5860
r0.964892602560295 aaaaa

#5870
r0.9986080629348117 aaaaa

#5880
r0.9318567223277087 aaaaa

#5890
r0.7713542221412001 aaaaa

#5900
r0.5332482116300897 aaaaa
r-0.01327033798598481 aaaab

#5910
r0.2414937839469841 aaaaa

#5920
r-0.07455657006661393 aaaaa

#5930
r-0.3831060232115159 aaaaa

#5940
r-0.6531123902173629 aaaaa

#5950
r-0.8574111838898257 aaaaa

#5960
r-0.9754485483103424 aaaaa

#5970
r-0.9953491173169586 aaaaa

#5980
r-0.915110757560247 aaaaa

#5990
r-0.7428059968115913 aaaaa

#6000
r-0.4957698724583786 aaaaa
r0.01401628961195557 aaaab

#6010
r-0.1988559081820863 aaaaa

#6020
r0.1180643205065263 aaaaa

#6030
r0.4231064710665692 aaaaa

#6040
r0.6855812168554618 aaaaa

#6050
r0.8790818032848472 aaaaa

#6060
r0.9841407479377555 aaaaa

#6070
r0.9901884024450731 aaaaa

#6080
r0.8966163314012148 aaaaa

#6090
r0.7128385251272411 aaaaa

#6100
r0.4573442878587933 aaaaa
r-0.01473546093725004 aaaab

#6110
r0.1558380872847883 aaaaa

#6120
r-0.1613464907044601 aaaaa

#6130
r-0.4622985082204351 aaaaa

#6140
r-0.7167401339787239 aaaaa

#6150
r-0.8990728002075314 aaaaa

#6160
r-0.9909525936436082 aaaaa

#6170
r-0.98313577866735 aaaaa

#6180
r-0.8764087803274607 aaaaa

#6190
r-0.6815090646024015 aaaaa

#6200
r-0.4180448758854503 aaaaa
r0.01542647787322836 aaaab

#6210
r-0.1125225134906934 aaaaa

#6220
r0.2043203833443699 aaaaa

#6230
r0.5006072521922177 aaaaa

#6240
r0.7465296076311302 aaaaa

#6250
r0.9173459787498865 aaaaa

#6260
r0.9958710703375157 aaaaa

#6270
r0.974204721118119 aaaaa

#6280
r0.8545267140073541 aaaaa

#6290
r0.6488774750427776 aaaaa

#6300
r0.3779467241755335 aaaaa
r-0.01608802012458909 aaaab

#6310
r0.06899194793861113 aaaaa

#6320
r-0.2469038901224187 aaaaa

#6330
r-0.5379595081699875 aaaaa

#6340
r-0.7748927203913455 aaaaa

#6350
r-0.9338664251630371 aaaaa

#6360
r-0.9988867805049871 aaaaa

#6370
r-0.9634122939715051 aaaaa

#6380
r-0.8310119415310104 aaaaa

#6390
r-0.615006104174062 aaaaa

#6400
r-0.3371264464826884 aaaaa
r0.01671882371199881 aaaab

#6410
r-0.02532956254253373 aaaaa

#6420
r0.2890156486276588 aaaaa

#6430
r0.5742839088608508 aaaaa

#6440
r0.8017752801223018 aaaaa

#6450
r0.9486025745653703 aaaaa

#6460
r0.9999939621628393 aaaaa

#6470
r0.9507791178376708 aaaaa

#6480
r0.8059093915275237 aaaaa

#6490
r0.5799596685169098 aaaaa

#6500
r0.2956620362945332 aaaaa
r-0.01731768338712092 aaaab

#6510
r-0.01838121892123832 aaaaa

#6520
r-0.3305751977975696 aaaaa

#6530
r-0.6095110508492588 aaaaa

#6540
r-0.8271259235137028 aaaaa

#6550
r-0.9615262712521506 aaaaa

#6560
r-0.9991904998683608 aaaaa

#6570
r-0.9363293303639342 aaaaa

#6580
r-0.779267026321835 aaaaa

#6590
r-0.543805129735964 aaaaa

#6600
r-0.2536327178139739 aaaaa
r0.01788345493543025 aaaab

#6610
r0.06205688020819214 aaaaa

#6620
r0.3715031316514275 aaaaa

#6630
r0.6435736272030254 aaaaa

#6640
r0.8508962142196144 aaaaa

#6650
r0.9726128224913709 aaaaa

#6660
r0.9964779287611945 aaaaa

#6670
r0.9200905401160405 aaaaa

#6680
r0.7511357502952527 aaaaa

#6690
r0.5066115666991824 aaaaa

#6700
r0.2111187945890456 aaaaa
r-0.01841505736241289 aaaab

#6710
r-0.1056139721763734 aaaaa

#6720
r-0.4117212510077793 aaaaa

#6730
r-0.6764065560736856 aaaaa

#6740
r-0.8730407354036344 aaaaa

#6750
r-0.9818410457030566 aaaaa

#6760
r-0.9918614316302141 aaaaa

#6770
r-0.9020937738277044 aaaaa

